{
    "test_installation": {
        "environment": {
            "test_identifier": "pts\/build-llvm-1.3.1",
            "test_version": "1.3.1",
            "install_checksum": "f18dfd09c6f2ed107d2818fc12e552b2",
            "system_hash": "NCB4IEludGVsIFhlb24gRTctODg3MCB2NF9fRGViaWFuIDEwX19HQ0MgOC4zLjAgKyBDbGFuZyA3LjAuMS04K2RlYjEwdTJfXw==",
            "compiler_data": false,
            "install_footnote": null
        },
        "history": {
            "install_date_time": "2021-07-08 08:22:49",
            "last_run_date_time": null,
            "install_time_length": 5,
            "times_run": 0,
            "average_runtime": null,
            "latest_runtime": null,
            "per_run_times": null
        }
    }
}