bin/cg.B.x
  no change
     trace-cmd: cg.B.x_sn4.19_nochange.dat
     hyperfine: 1.549883+-0.047990
  round robin
     trace-cmd: cg.B.x_sn4.19_roundrobin.dat
     hyperfine: 1.775775+-0.070355
  reorganize sockets 1: 2 0 3 1
     trace-cmd: cg.B.x_sn4.19_reorganizesockets1.dat
     hyperfine: 1.572172+-0.033406
  reorganize sockets 2: 1 2 0 3
     trace-cmd: cg.B.x_sn4.19_reorganizesockets2.dat
     hyperfine: 1.551970+-0.018421
  reorganize sockets 3: 2 1 3 0
     trace-cmd: cg.B.x_sn4.19_reorganizesockets3.dat
     hyperfine: 1.565076+-0.032258
  reorganize_in_sockets: 120 92 60 76 72 68 20 100 52 24 56 152 96 148 0 8 64 44 32 128 136 156 104 108 36 132 16 4 112 12 124 84 116 48 88 140 80 40 28 144 157 9 73 69 5 81 125 105 89 121 77 57 93 153 1 37 109 29 25 101 21 113 61 137 129 13 133 53 17 149 97 65 45 49 141 145 33 41 117 85 130 78 98 106 50 6 2 134 138 110 74 86 30 18 122 150 70 66 46 62 42 10 158 58 142 102 90 94 154 38 114 126 82 26 146 118 22 54 34 14 119 23 95 67 75 39 159 47 55 135 147 27 3 87 79 63 51 151 139 11 127 83 15 71 131 59 103 111 91 155 35 43 107 31 143 7 99 19 123 115
     trace-cmd: cg.B.x_sn4.19_reorganize_in_sockets.dat
     hyperfine: 1.576247+-0.043255
  reorganize_in_sockets: 84 112 136 16 92 12 0 4 148 56 128 116 68 48 76 96 132 100 60 24 40 108 32 124 88 104 72 80 8 52 140 144 120 152 44 36 64 28 20 156 73 13 137 37 93 21 1 69 89 57 121 105 141 45 25 157 29 17 33 117 109 129 125 9 41 49 145 85 61 113 153 53 5 81 133 149 65 77 101 97 110 58 30 98 146 22 26 74 54 142 90 118 10 14 114 130 138 62 86 158 34 66 38 82 70 102 150 94 154 2 106 126 50 78 42 6 122 46 134 18 151 75 71 143 47 135 23 7 59 159 19 103 115 87 79 35 111 63 3 155 127 95 43 39 99 55 15 51 67 139 123 147 107 91 27 31 83 11 131 119
     trace-cmd: cg.B.x_sn4.19_reorganize_in_sockets.dat
     hyperfine: 1.579773+-0.049752
  reorganize_in_sockets: 152 56 96 16 48 144 24 36 140 76 8 84 44 64 12 80 92 120 28 116 124 32 72 156 108 60 132 100 104 40 4 136 128 88 20 0 52 148 68 112 125 69 137 13 105 121 17 33 25 53 49 141 117 133 145 101 61 85 37 89 45 81 57 65 29 113 97 109 153 77 1 73 149 5 93 129 41 157 9 21 110 158 30 74 58 98 150 82 146 10 62 106 34 66 50 18 38 78 94 46 130 122 142 42 2 90 54 14 86 22 154 126 70 138 26 6 102 134 118 114 27 123 91 47 67 15 7 35 127 95 135 155 3 115 83 11 107 43 19 143 139 63 55 39 87 147 79 59 23 151 51 75 99 103 159 111 31 71 119 131
     trace-cmd: cg.B.x_sn4.19_reorganize_in_sockets.dat
     hyperfine: 1.567450+-0.028061
  rotate 20
     trace-cmd: cg.B.x_sn4.19_rotate20.dat
     hyperfine: 1.566608+-0.031485
  rotate 10
     trace-cmd: cg.B.x_sn4.19_rotate10.dat
     hyperfine: 1.576549+-0.048675
  rotate 5
     trace-cmd: cg.B.x_sn4.19_rotate5.dat
     hyperfine: 1.582538+-0.053384
  even shift
     trace-cmd: cg.B.x_sn4.19_evenshift.dat
     hyperfine: 1.702905+-0.083628
  one shift
     trace-cmd: cg.B.x_sn4.19_oneshift.dat
     hyperfine: 1.712575+-0.076919
  reorganize_everything: 124 82 155 51 121 113 3 131 156 127 89 47 71 110 106 85 107 11 59 14 93 13 154 32 148 5 76 44 18 119 150 54 39 75 105 38 52 141 41 87 40 58 48 46 57 96 123 112 50 21 73 100 103 114 25 125 29 129 98 135 19 67 27 139 61 79 138 149 153 33 136 77 23 86 102 8 35 108 7 142 30 55 137 91 68 84 17 147 118 9 63 15 126 53 104 132 0 62 143 10 56 37 159 16 36 1 152 43 133 22 101 99 134 78 88 130 109 151 145 115 20 122 116 49 157 117 42 69 144 97 72 120 83 28 74 6 95 140 12 92 111 31 146 70 158 65 2 60 90 128 34 45 94 80 24 4 66 26 81 64
     trace-cmd: cg.B.x_sn4.19_reorganize_everything.dat
     hyperfine: 1.711375+-0.063000
  reorganize_everything: 48 108 82 22 135 32 43 116 50 157 4 138 147 28 87 122 77 155 27 20 101 115 8 72 2 67 123 124 91 19 99 57 133 111 73 121 119 29 12 132 17 151 84 56 66 83 75 1 47 52 81 9 94 11 16 24 15 134 95 125 106 89 61 25 62 69 140 14 137 7 141 117 98 31 154 79 40 45 53 146 21 34 76 68 120 149 54 18 107 143 55 153 42 38 129 70 103 92 37 118 113 102 139 10 148 44 93 150 88 71 159 13 33 128 136 145 78 105 90 131 3 110 58 0 65 35 64 86 46 63 80 96 51 100 5 152 144 130 156 142 60 85 74 104 127 23 36 26 97 112 158 30 6 49 126 114 41 109 39 59
     trace-cmd: cg.B.x_sn4.19_reorganize_everything.dat
     hyperfine: 1.719426+-0.051056
  reorganize_everything: 75 67 64 101 83 74 32 143 35 27 119 154 152 147 109 100 126 123 117 102 6 106 94 87 144 142 137 115 12 96 46 70 54 107 145 122 24 61 116 124 153 33 85 93 132 135 11 51 17 133 62 26 88 99 121 22 149 151 39 127 42 7 18 21 38 1 5 130 43 16 53 56 79 15 4 98 25 108 129 112 148 136 78 141 80 140 128 95 59 110 48 47 69 81 113 120 71 86 2 30 125 118 65 92 146 31 104 63 10 40 138 60 44 52 76 14 50 89 82 150 111 41 0 9 134 84 68 13 66 23 29 8 105 90 73 20 37 28 55 19 58 131 72 36 103 156 114 3 45 57 34 97 139 155 157 77 159 49 158 91
     trace-cmd: cg.B.x_sn4.19_reorganize_everything.dat
     hyperfine: 1.755159+-0.063643
bin/ep.B.x
  no change
     trace-cmd: ep.B.x_sn4.19_nochange.dat
     hyperfine: 0.702313+-0.021504
  round robin
     trace-cmd: ep.B.x_sn4.19_roundrobin.dat
     hyperfine: 0.723627+-0.019152
  reorganize sockets 1: 2 0 3 1
     trace-cmd: ep.B.x_sn4.19_reorganizesockets1.dat
     hyperfine: 0.704173+-0.013408
  reorganize sockets 2: 1 2 0 3
     trace-cmd: ep.B.x_sn4.19_reorganizesockets2.dat
     hyperfine: 0.702869+-0.024881
  reorganize sockets 3: 2 1 3 0
     trace-cmd: ep.B.x_sn4.19_reorganizesockets3.dat
     hyperfine: 0.707107+-0.020340
  reorganize_in_sockets: 120 92 60 76 72 68 20 100 52 24 56 152 96 148 0 8 64 44 32 128 136 156 104 108 36 132 16 4 112 12 124 84 116 48 88 140 80 40 28 144 157 9 73 69 5 81 125 105 89 121 77 57 93 153 1 37 109 29 25 101 21 113 61 137 129 13 133 53 17 149 97 65 45 49 141 145 33 41 117 85 130 78 98 106 50 6 2 134 138 110 74 86 30 18 122 150 70 66 46 62 42 10 158 58 142 102 90 94 154 38 114 126 82 26 146 118 22 54 34 14 119 23 95 67 75 39 159 47 55 135 147 27 3 87 79 63 51 151 139 11 127 83 15 71 131 59 103 111 91 155 35 43 107 31 143 7 99 19 123 115
     trace-cmd: ep.B.x_sn4.19_reorganize_in_sockets.dat
     hyperfine: 0.717932+-0.050956
  reorganize_in_sockets: 84 112 136 16 92 12 0 4 148 56 128 116 68 48 76 96 132 100 60 24 40 108 32 124 88 104 72 80 8 52 140 144 120 152 44 36 64 28 20 156 73 13 137 37 93 21 1 69 89 57 121 105 141 45 25 157 29 17 33 117 109 129 125 9 41 49 145 85 61 113 153 53 5 81 133 149 65 77 101 97 110 58 30 98 146 22 26 74 54 142 90 118 10 14 114 130 138 62 86 158 34 66 38 82 70 102 150 94 154 2 106 126 50 78 42 6 122 46 134 18 151 75 71 143 47 135 23 7 59 159 19 103 115 87 79 35 111 63 3 155 127 95 43 39 99 55 15 51 67 139 123 147 107 91 27 31 83 11 131 119
     trace-cmd: ep.B.x_sn4.19_reorganize_in_sockets.dat
     hyperfine: 0.702651+-0.020084
  reorganize_in_sockets: 152 56 96 16 48 144 24 36 140 76 8 84 44 64 12 80 92 120 28 116 124 32 72 156 108 60 132 100 104 40 4 136 128 88 20 0 52 148 68 112 125 69 137 13 105 121 17 33 25 53 49 141 117 133 145 101 61 85 37 89 45 81 57 65 29 113 97 109 153 77 1 73 149 5 93 129 41 157 9 21 110 158 30 74 58 98 150 82 146 10 62 106 34 66 50 18 38 78 94 46 130 122 142 42 2 90 54 14 86 22 154 126 70 138 26 6 102 134 118 114 27 123 91 47 67 15 7 35 127 95 135 155 3 115 83 11 107 43 19 143 139 63 55 39 87 147 79 59 23 151 51 75 99 103 159 111 31 71 119 131
     trace-cmd: ep.B.x_sn4.19_reorganize_in_sockets.dat
     hyperfine: 0.691001+-0.016549
  rotate 20
     trace-cmd: ep.B.x_sn4.19_rotate20.dat
     hyperfine: 0.714572+-0.023544
  rotate 10
     trace-cmd: ep.B.x_sn4.19_rotate10.dat
     hyperfine: 0.696240+-0.014505
  rotate 5
     trace-cmd: ep.B.x_sn4.19_rotate5.dat
     hyperfine: 0.700977+-0.017104
  even shift
     trace-cmd: ep.B.x_sn4.19_evenshift.dat
     hyperfine: 0.709382+-0.018723
  one shift
     trace-cmd: ep.B.x_sn4.19_oneshift.dat
     hyperfine: 0.716099+-0.023992
  reorganize_everything: 124 82 155 51 121 113 3 131 156 127 89 47 71 110 106 85 107 11 59 14 93 13 154 32 148 5 76 44 18 119 150 54 39 75 105 38 52 141 41 87 40 58 48 46 57 96 123 112 50 21 73 100 103 114 25 125 29 129 98 135 19 67 27 139 61 79 138 149 153 33 136 77 23 86 102 8 35 108 7 142 30 55 137 91 68 84 17 147 118 9 63 15 126 53 104 132 0 62 143 10 56 37 159 16 36 1 152 43 133 22 101 99 134 78 88 130 109 151 145 115 20 122 116 49 157 117 42 69 144 97 72 120 83 28 74 6 95 140 12 92 111 31 146 70 158 65 2 60 90 128 34 45 94 80 24 4 66 26 81 64
     trace-cmd: ep.B.x_sn4.19_reorganize_everything.dat
     hyperfine: 0.706253+-0.016306
  reorganize_everything: 48 108 82 22 135 32 43 116 50 157 4 138 147 28 87 122 77 155 27 20 101 115 8 72 2 67 123 124 91 19 99 57 133 111 73 121 119 29 12 132 17 151 84 56 66 83 75 1 47 52 81 9 94 11 16 24 15 134 95 125 106 89 61 25 62 69 140 14 137 7 141 117 98 31 154 79 40 45 53 146 21 34 76 68 120 149 54 18 107 143 55 153 42 38 129 70 103 92 37 118 113 102 139 10 148 44 93 150 88 71 159 13 33 128 136 145 78 105 90 131 3 110 58 0 65 35 64 86 46 63 80 96 51 100 5 152 144 130 156 142 60 85 74 104 127 23 36 26 97 112 158 30 6 49 126 114 41 109 39 59
     trace-cmd: ep.B.x_sn4.19_reorganize_everything.dat
     hyperfine: 0.710518+-0.016662
  reorganize_everything: 75 67 64 101 83 74 32 143 35 27 119 154 152 147 109 100 126 123 117 102 6 106 94 87 144 142 137 115 12 96 46 70 54 107 145 122 24 61 116 124 153 33 85 93 132 135 11 51 17 133 62 26 88 99 121 22 149 151 39 127 42 7 18 21 38 1 5 130 43 16 53 56 79 15 4 98 25 108 129 112 148 136 78 141 80 140 128 95 59 110 48 47 69 81 113 120 71 86 2 30 125 118 65 92 146 31 104 63 10 40 138 60 44 52 76 14 50 89 82 150 111 41 0 9 134 84 68 13 66 23 29 8 105 90 73 20 37 28 55 19 58 131 72 36 103 156 114 3 45 57 34 97 139 155 157 77 159 49 158 91
     trace-cmd: ep.B.x_sn4.19_reorganize_everything.dat
     hyperfine: 0.714982+-0.023396
bin/ft.B.x
  no change
     trace-cmd: ft.B.x_sn4.19_nochange.dat
     hyperfine: 1.323244+-0.033973
  round robin
     trace-cmd: ft.B.x_sn4.19_roundrobin.dat
     hyperfine: 1.441644+-0.014032
  reorganize sockets 1: 2 0 3 1
     trace-cmd: ft.B.x_sn4.19_reorganizesockets1.dat
     hyperfine: 1.309712+-0.004767
  reorganize sockets 2: 1 2 0 3
     trace-cmd: ft.B.x_sn4.19_reorganizesockets2.dat
     hyperfine: 1.309110+-0.005628
  reorganize sockets 3: 2 1 3 0
     trace-cmd: ft.B.x_sn4.19_reorganizesockets3.dat
     hyperfine: 1.309407+-0.005151
  reorganize_in_sockets: 120 92 60 76 72 68 20 100 52 24 56 152 96 148 0 8 64 44 32 128 136 156 104 108 36 132 16 4 112 12 124 84 116 48 88 140 80 40 28 144 157 9 73 69 5 81 125 105 89 121 77 57 93 153 1 37 109 29 25 101 21 113 61 137 129 13 133 53 17 149 97 65 45 49 141 145 33 41 117 85 130 78 98 106 50 6 2 134 138 110 74 86 30 18 122 150 70 66 46 62 42 10 158 58 142 102 90 94 154 38 114 126 82 26 146 118 22 54 34 14 119 23 95 67 75 39 159 47 55 135 147 27 3 87 79 63 51 151 139 11 127 83 15 71 131 59 103 111 91 155 35 43 107 31 143 7 99 19 123 115
     trace-cmd: ft.B.x_sn4.19_reorganize_in_sockets.dat
     hyperfine: 1.310987+-0.004286
  reorganize_in_sockets: 84 112 136 16 92 12 0 4 148 56 128 116 68 48 76 96 132 100 60 24 40 108 32 124 88 104 72 80 8 52 140 144 120 152 44 36 64 28 20 156 73 13 137 37 93 21 1 69 89 57 121 105 141 45 25 157 29 17 33 117 109 129 125 9 41 49 145 85 61 113 153 53 5 81 133 149 65 77 101 97 110 58 30 98 146 22 26 74 54 142 90 118 10 14 114 130 138 62 86 158 34 66 38 82 70 102 150 94 154 2 106 126 50 78 42 6 122 46 134 18 151 75 71 143 47 135 23 7 59 159 19 103 115 87 79 35 111 63 3 155 127 95 43 39 99 55 15 51 67 139 123 147 107 91 27 31 83 11 131 119
     trace-cmd: ft.B.x_sn4.19_reorganize_in_sockets.dat
     hyperfine: 1.316499+-0.018547
  reorganize_in_sockets: 152 56 96 16 48 144 24 36 140 76 8 84 44 64 12 80 92 120 28 116 124 32 72 156 108 60 132 100 104 40 4 136 128 88 20 0 52 148 68 112 125 69 137 13 105 121 17 33 25 53 49 141 117 133 145 101 61 85 37 89 45 81 57 65 29 113 97 109 153 77 1 73 149 5 93 129 41 157 9 21 110 158 30 74 58 98 150 82 146 10 62 106 34 66 50 18 38 78 94 46 130 122 142 42 2 90 54 14 86 22 154 126 70 138 26 6 102 134 118 114 27 123 91 47 67 15 7 35 127 95 135 155 3 115 83 11 107 43 19 143 139 63 55 39 87 147 79 59 23 151 51 75 99 103 159 111 31 71 119 131
     trace-cmd: ft.B.x_sn4.19_reorganize_in_sockets.dat
     hyperfine: 1.311658+-0.004536
  rotate 20
     trace-cmd: ft.B.x_sn4.19_rotate20.dat
     hyperfine: 1.306374+-0.005189
  rotate 10
     trace-cmd: ft.B.x_sn4.19_rotate10.dat
     hyperfine: 1.306928+-0.004370
  rotate 5
     trace-cmd: ft.B.x_sn4.19_rotate5.dat
     hyperfine: 1.308205+-0.004195
  even shift
     trace-cmd: ft.B.x_sn4.19_evenshift.dat
     hyperfine: 1.459339+-0.019238
  one shift
     trace-cmd: ft.B.x_sn4.19_oneshift.dat
     hyperfine: 1.386067+-0.004417
  reorganize_everything: 124 82 155 51 121 113 3 131 156 127 89 47 71 110 106 85 107 11 59 14 93 13 154 32 148 5 76 44 18 119 150 54 39 75 105 38 52 141 41 87 40 58 48 46 57 96 123 112 50 21 73 100 103 114 25 125 29 129 98 135 19 67 27 139 61 79 138 149 153 33 136 77 23 86 102 8 35 108 7 142 30 55 137 91 68 84 17 147 118 9 63 15 126 53 104 132 0 62 143 10 56 37 159 16 36 1 152 43 133 22 101 99 134 78 88 130 109 151 145 115 20 122 116 49 157 117 42 69 144 97 72 120 83 28 74 6 95 140 12 92 111 31 146 70 158 65 2 60 90 128 34 45 94 80 24 4 66 26 81 64
     trace-cmd: ft.B.x_sn4.19_reorganize_everything.dat
     hyperfine: 1.409821+-0.019605
  reorganize_everything: 48 108 82 22 135 32 43 116 50 157 4 138 147 28 87 122 77 155 27 20 101 115 8 72 2 67 123 124 91 19 99 57 133 111 73 121 119 29 12 132 17 151 84 56 66 83 75 1 47 52 81 9 94 11 16 24 15 134 95 125 106 89 61 25 62 69 140 14 137 7 141 117 98 31 154 79 40 45 53 146 21 34 76 68 120 149 54 18 107 143 55 153 42 38 129 70 103 92 37 118 113 102 139 10 148 44 93 150 88 71 159 13 33 128 136 145 78 105 90 131 3 110 58 0 65 35 64 86 46 63 80 96 51 100 5 152 144 130 156 142 60 85 74 104 127 23 36 26 97 112 158 30 6 49 126 114 41 109 39 59
     trace-cmd: ft.B.x_sn4.19_reorganize_everything.dat
     hyperfine: 1.411983+-0.005563
  reorganize_everything: 75 67 64 101 83 74 32 143 35 27 119 154 152 147 109 100 126 123 117 102 6 106 94 87 144 142 137 115 12 96 46 70 54 107 145 122 24 61 116 124 153 33 85 93 132 135 11 51 17 133 62 26 88 99 121 22 149 151 39 127 42 7 18 21 38 1 5 130 43 16 53 56 79 15 4 98 25 108 129 112 148 136 78 141 80 140 128 95 59 110 48 47 69 81 113 120 71 86 2 30 125 118 65 92 146 31 104 63 10 40 138 60 44 52 76 14 50 89 82 150 111 41 0 9 134 84 68 13 66 23 29 8 105 90 73 20 37 28 55 19 58 131 72 36 103 156 114 3 45 57 34 97 139 155 157 77 159 49 158 91
     trace-cmd: ft.B.x_sn4.19_reorganize_everything.dat
     hyperfine: 1.407834+-0.004851
bin/is.B.x
  no change
     trace-cmd: is.B.x_sn4.19_nochange.dat
     hyperfine: 0.175831+-0.004477
  round robin
     trace-cmd: is.B.x_sn4.19_roundrobin.dat
     hyperfine: 0.192676+-0.004963
  reorganize sockets 1: 2 0 3 1
     trace-cmd: is.B.x_sn4.19_reorganizesockets1.dat
     hyperfine: 0.173110+-0.003502
  reorganize sockets 2: 1 2 0 3
     trace-cmd: is.B.x_sn4.19_reorganizesockets2.dat
     hyperfine: 0.174590+-0.003177
  reorganize sockets 3: 2 1 3 0
     trace-cmd: is.B.x_sn4.19_reorganizesockets3.dat
     hyperfine: 0.174290+-0.002497
  reorganize_in_sockets: 120 92 60 76 72 68 20 100 52 24 56 152 96 148 0 8 64 44 32 128 136 156 104 108 36 132 16 4 112 12 124 84 116 48 88 140 80 40 28 144 157 9 73 69 5 81 125 105 89 121 77 57 93 153 1 37 109 29 25 101 21 113 61 137 129 13 133 53 17 149 97 65 45 49 141 145 33 41 117 85 130 78 98 106 50 6 2 134 138 110 74 86 30 18 122 150 70 66 46 62 42 10 158 58 142 102 90 94 154 38 114 126 82 26 146 118 22 54 34 14 119 23 95 67 75 39 159 47 55 135 147 27 3 87 79 63 51 151 139 11 127 83 15 71 131 59 103 111 91 155 35 43 107 31 143 7 99 19 123 115
     trace-cmd: is.B.x_sn4.19_reorganize_in_sockets.dat
     hyperfine: 0.175281+-0.003642
  reorganize_in_sockets: 84 112 136 16 92 12 0 4 148 56 128 116 68 48 76 96 132 100 60 24 40 108 32 124 88 104 72 80 8 52 140 144 120 152 44 36 64 28 20 156 73 13 137 37 93 21 1 69 89 57 121 105 141 45 25 157 29 17 33 117 109 129 125 9 41 49 145 85 61 113 153 53 5 81 133 149 65 77 101 97 110 58 30 98 146 22 26 74 54 142 90 118 10 14 114 130 138 62 86 158 34 66 38 82 70 102 150 94 154 2 106 126 50 78 42 6 122 46 134 18 151 75 71 143 47 135 23 7 59 159 19 103 115 87 79 35 111 63 3 155 127 95 43 39 99 55 15 51 67 139 123 147 107 91 27 31 83 11 131 119
     trace-cmd: is.B.x_sn4.19_reorganize_in_sockets.dat
     hyperfine: 0.174338+-0.002817
  reorganize_in_sockets: 152 56 96 16 48 144 24 36 140 76 8 84 44 64 12 80 92 120 28 116 124 32 72 156 108 60 132 100 104 40 4 136 128 88 20 0 52 148 68 112 125 69 137 13 105 121 17 33 25 53 49 141 117 133 145 101 61 85 37 89 45 81 57 65 29 113 97 109 153 77 1 73 149 5 93 129 41 157 9 21 110 158 30 74 58 98 150 82 146 10 62 106 34 66 50 18 38 78 94 46 130 122 142 42 2 90 54 14 86 22 154 126 70 138 26 6 102 134 118 114 27 123 91 47 67 15 7 35 127 95 135 155 3 115 83 11 107 43 19 143 139 63 55 39 87 147 79 59 23 151 51 75 99 103 159 111 31 71 119 131
     trace-cmd: is.B.x_sn4.19_reorganize_in_sockets.dat
     hyperfine: 0.173707+-0.003366
  rotate 20
     trace-cmd: is.B.x_sn4.19_rotate20.dat
     hyperfine: 0.174931+-0.003187
  rotate 10
     trace-cmd: is.B.x_sn4.19_rotate10.dat
     hyperfine: 0.174172+-0.002540
  rotate 5
     trace-cmd: is.B.x_sn4.19_rotate5.dat
     hyperfine: 0.173795+-0.002068
  even shift
     trace-cmd: is.B.x_sn4.19_evenshift.dat
     hyperfine: 0.188319+-0.005392
  one shift
     trace-cmd: is.B.x_sn4.19_oneshift.dat
     hyperfine: 0.175819+-0.004096
  reorganize_everything: 124 82 155 51 121 113 3 131 156 127 89 47 71 110 106 85 107 11 59 14 93 13 154 32 148 5 76 44 18 119 150 54 39 75 105 38 52 141 41 87 40 58 48 46 57 96 123 112 50 21 73 100 103 114 25 125 29 129 98 135 19 67 27 139 61 79 138 149 153 33 136 77 23 86 102 8 35 108 7 142 30 55 137 91 68 84 17 147 118 9 63 15 126 53 104 132 0 62 143 10 56 37 159 16 36 1 152 43 133 22 101 99 134 78 88 130 109 151 145 115 20 122 116 49 157 117 42 69 144 97 72 120 83 28 74 6 95 140 12 92 111 31 146 70 158 65 2 60 90 128 34 45 94 80 24 4 66 26 81 64
     trace-cmd: is.B.x_sn4.19_reorganize_everything.dat
     hyperfine: 0.178367+-0.004337
  reorganize_everything: 48 108 82 22 135 32 43 116 50 157 4 138 147 28 87 122 77 155 27 20 101 115 8 72 2 67 123 124 91 19 99 57 133 111 73 121 119 29 12 132 17 151 84 56 66 83 75 1 47 52 81 9 94 11 16 24 15 134 95 125 106 89 61 25 62 69 140 14 137 7 141 117 98 31 154 79 40 45 53 146 21 34 76 68 120 149 54 18 107 143 55 153 42 38 129 70 103 92 37 118 113 102 139 10 148 44 93 150 88 71 159 13 33 128 136 145 78 105 90 131 3 110 58 0 65 35 64 86 46 63 80 96 51 100 5 152 144 130 156 142 60 85 74 104 127 23 36 26 97 112 158 30 6 49 126 114 41 109 39 59
     trace-cmd: is.B.x_sn4.19_reorganize_everything.dat
     hyperfine: 0.180558+-0.005059
  reorganize_everything: 75 67 64 101 83 74 32 143 35 27 119 154 152 147 109 100 126 123 117 102 6 106 94 87 144 142 137 115 12 96 46 70 54 107 145 122 24 61 116 124 153 33 85 93 132 135 11 51 17 133 62 26 88 99 121 22 149 151 39 127 42 7 18 21 38 1 5 130 43 16 53 56 79 15 4 98 25 108 129 112 148 136 78 141 80 140 128 95 59 110 48 47 69 81 113 120 71 86 2 30 125 118 65 92 146 31 104 63 10 40 138 60 44 52 76 14 50 89 82 150 111 41 0 9 134 84 68 13 66 23 29 8 105 90 73 20 37 28 55 19 58 131 72 36 103 156 114 3 45 57 34 97 139 155 157 77 159 49 158 91
     trace-cmd: is.B.x_sn4.19_reorganize_everything.dat
     hyperfine: 0.177507+-0.004755
bin/lu.B.x
  no change
     trace-cmd: lu.B.x_sn4.19_nochange.dat
     hyperfine: 4.840340+-0.035153
  round robin
     trace-cmd: lu.B.x_sn4.19_roundrobin.dat
     hyperfine: 5.960743+-0.234523
  reorganize sockets 1: 2 0 3 1
     trace-cmd: lu.B.x_sn4.19_reorganizesockets1.dat
     hyperfine: 4.838866+-0.036955
  reorganize sockets 2: 1 2 0 3
     trace-cmd: lu.B.x_sn4.19_reorganizesockets2.dat
     hyperfine: 4.810337+-0.034599
  reorganize sockets 3: 2 1 3 0
     trace-cmd: lu.B.x_sn4.19_reorganizesockets3.dat
     hyperfine: 4.881072+-0.079921
  reorganize_in_sockets: 120 92 60 76 72 68 20 100 52 24 56 152 96 148 0 8 64 44 32 128 136 156 104 108 36 132 16 4 112 12 124 84 116 48 88 140 80 40 28 144 157 9 73 69 5 81 125 105 89 121 77 57 93 153 1 37 109 29 25 101 21 113 61 137 129 13 133 53 17 149 97 65 45 49 141 145 33 41 117 85 130 78 98 106 50 6 2 134 138 110 74 86 30 18 122 150 70 66 46 62 42 10 158 58 142 102 90 94 154 38 114 126 82 26 146 118 22 54 34 14 119 23 95 67 75 39 159 47 55 135 147 27 3 87 79 63 51 151 139 11 127 83 15 71 131 59 103 111 91 155 35 43 107 31 143 7 99 19 123 115
     trace-cmd: lu.B.x_sn4.19_reorganize_in_sockets.dat
     hyperfine: 4.996736+-0.097845
  reorganize_in_sockets: 84 112 136 16 92 12 0 4 148 56 128 116 68 48 76 96 132 100 60 24 40 108 32 124 88 104 72 80 8 52 140 144 120 152 44 36 64 28 20 156 73 13 137 37 93 21 1 69 89 57 121 105 141 45 25 157 29 17 33 117 109 129 125 9 41 49 145 85 61 113 153 53 5 81 133 149 65 77 101 97 110 58 30 98 146 22 26 74 54 142 90 118 10 14 114 130 138 62 86 158 34 66 38 82 70 102 150 94 154 2 106 126 50 78 42 6 122 46 134 18 151 75 71 143 47 135 23 7 59 159 19 103 115 87 79 35 111 63 3 155 127 95 43 39 99 55 15 51 67 139 123 147 107 91 27 31 83 11 131 119
     trace-cmd: lu.B.x_sn4.19_reorganize_in_sockets.dat
     hyperfine: 5.046559+-0.036811
  reorganize_in_sockets: 152 56 96 16 48 144 24 36 140 76 8 84 44 64 12 80 92 120 28 116 124 32 72 156 108 60 132 100 104 40 4 136 128 88 20 0 52 148 68 112 125 69 137 13 105 121 17 33 25 53 49 141 117 133 145 101 61 85 37 89 45 81 57 65 29 113 97 109 153 77 1 73 149 5 93 129 41 157 9 21 110 158 30 74 58 98 150 82 146 10 62 106 34 66 50 18 38 78 94 46 130 122 142 42 2 90 54 14 86 22 154 126 70 138 26 6 102 134 118 114 27 123 91 47 67 15 7 35 127 95 135 155 3 115 83 11 107 43 19 143 139 63 55 39 87 147 79 59 23 151 51 75 99 103 159 111 31 71 119 131
     trace-cmd: lu.B.x_sn4.19_reorganize_in_sockets.dat
     hyperfine: 5.062949+-0.052482
  rotate 20
     trace-cmd: lu.B.x_sn4.19_rotate20.dat
     hyperfine: 4.981000+-0.032258
  rotate 10
     trace-cmd: lu.B.x_sn4.19_rotate10.dat
     hyperfine: 5.076773+-0.034727
  rotate 5
     trace-cmd: lu.B.x_sn4.19_rotate5.dat
     hyperfine: 5.011497+-0.061963
  even shift
     trace-cmd: lu.B.x_sn4.19_evenshift.dat
     hyperfine: 5.904312+-0.150912
  one shift
     trace-cmd: lu.B.x_sn4.19_oneshift.dat
     hyperfine: 5.442090+-0.062367
  reorganize_everything: 124 82 155 51 121 113 3 131 156 127 89 47 71 110 106 85 107 11 59 14 93 13 154 32 148 5 76 44 18 119 150 54 39 75 105 38 52 141 41 87 40 58 48 46 57 96 123 112 50 21 73 100 103 114 25 125 29 129 98 135 19 67 27 139 61 79 138 149 153 33 136 77 23 86 102 8 35 108 7 142 30 55 137 91 68 84 17 147 118 9 63 15 126 53 104 132 0 62 143 10 56 37 159 16 36 1 152 43 133 22 101 99 134 78 88 130 109 151 145 115 20 122 116 49 157 117 42 69 144 97 72 120 83 28 74 6 95 140 12 92 111 31 146 70 158 65 2 60 90 128 34 45 94 80 24 4 66 26 81 64
     trace-cmd: lu.B.x_sn4.19_reorganize_everything.dat
     hyperfine: 5.739994+-0.112523
  reorganize_everything: 48 108 82 22 135 32 43 116 50 157 4 138 147 28 87 122 77 155 27 20 101 115 8 72 2 67 123 124 91 19 99 57 133 111 73 121 119 29 12 132 17 151 84 56 66 83 75 1 47 52 81 9 94 11 16 24 15 134 95 125 106 89 61 25 62 69 140 14 137 7 141 117 98 31 154 79 40 45 53 146 21 34 76 68 120 149 54 18 107 143 55 153 42 38 129 70 103 92 37 118 113 102 139 10 148 44 93 150 88 71 159 13 33 128 136 145 78 105 90 131 3 110 58 0 65 35 64 86 46 63 80 96 51 100 5 152 144 130 156 142 60 85 74 104 127 23 36 26 97 112 158 30 6 49 126 114 41 109 39 59
     trace-cmd: lu.B.x_sn4.19_reorganize_everything.dat
     hyperfine: 248.998984+-731.830595
  reorganize_everything: 75 67 64 101 83 74 32 143 35 27 119 154 152 147 109 100 126 123 117 102 6 106 94 87 144 142 137 115 12 96 46 70 54 107 145 122 24 61 116 124 153 33 85 93 132 135 11 51 17 133 62 26 88 99 121 22 149 151 39 127 42 7 18 21 38 1 5 130 43 16 53 56 79 15 4 98 25 108 129 112 148 136 78 141 80 140 128 95 59 110 48 47 69 81 113 120 71 86 2 30 125 118 65 92 146 31 104 63 10 40 138 60 44 52 76 14 50 89 82 150 111 41 0 9 134 84 68 13 66 23 29 8 105 90 73 20 37 28 55 19 58 131 72 36 103 156 114 3 45 57 34 97 139 155 157 77 159 49 158 91
     trace-cmd: lu.B.x_sn4.19_reorganize_everything.dat
     hyperfine: 5.693447+-0.117974
bin/mg.B.x
  no change
     trace-cmd: mg.B.x_sn4.19_nochange.dat
     hyperfine: 0.474342+-0.003463
  round robin
     trace-cmd: mg.B.x_sn4.19_roundrobin.dat
     hyperfine: 1.105105+-0.097567
  reorganize sockets 1: 2 0 3 1
     trace-cmd: mg.B.x_sn4.19_reorganizesockets1.dat
     hyperfine: 0.477839+-0.006509
  reorganize sockets 2: 1 2 0 3
     trace-cmd: mg.B.x_sn4.19_reorganizesockets2.dat
     hyperfine: 0.474930+-0.004633
  reorganize sockets 3: 2 1 3 0
     trace-cmd: mg.B.x_sn4.19_reorganizesockets3.dat
     hyperfine: 0.475180+-0.003941
  reorganize_in_sockets: 120 92 60 76 72 68 20 100 52 24 56 152 96 148 0 8 64 44 32 128 136 156 104 108 36 132 16 4 112 12 124 84 116 48 88 140 80 40 28 144 157 9 73 69 5 81 125 105 89 121 77 57 93 153 1 37 109 29 25 101 21 113 61 137 129 13 133 53 17 149 97 65 45 49 141 145 33 41 117 85 130 78 98 106 50 6 2 134 138 110 74 86 30 18 122 150 70 66 46 62 42 10 158 58 142 102 90 94 154 38 114 126 82 26 146 118 22 54 34 14 119 23 95 67 75 39 159 47 55 135 147 27 3 87 79 63 51 151 139 11 127 83 15 71 131 59 103 111 91 155 35 43 107 31 143 7 99 19 123 115
     trace-cmd: mg.B.x_sn4.19_reorganize_in_sockets.dat
     hyperfine: 0.491106+-0.051949
  reorganize_in_sockets: 84 112 136 16 92 12 0 4 148 56 128 116 68 48 76 96 132 100 60 24 40 108 32 124 88 104 72 80 8 52 140 144 120 152 44 36 64 28 20 156 73 13 137 37 93 21 1 69 89 57 121 105 141 45 25 157 29 17 33 117 109 129 125 9 41 49 145 85 61 113 153 53 5 81 133 149 65 77 101 97 110 58 30 98 146 22 26 74 54 142 90 118 10 14 114 130 138 62 86 158 34 66 38 82 70 102 150 94 154 2 106 126 50 78 42 6 122 46 134 18 151 75 71 143 47 135 23 7 59 159 19 103 115 87 79 35 111 63 3 155 127 95 43 39 99 55 15 51 67 139 123 147 107 91 27 31 83 11 131 119
     trace-cmd: mg.B.x_sn4.19_reorganize_in_sockets.dat
     hyperfine: 0.474932+-0.003768
  reorganize_in_sockets: 152 56 96 16 48 144 24 36 140 76 8 84 44 64 12 80 92 120 28 116 124 32 72 156 108 60 132 100 104 40 4 136 128 88 20 0 52 148 68 112 125 69 137 13 105 121 17 33 25 53 49 141 117 133 145 101 61 85 37 89 45 81 57 65 29 113 97 109 153 77 1 73 149 5 93 129 41 157 9 21 110 158 30 74 58 98 150 82 146 10 62 106 34 66 50 18 38 78 94 46 130 122 142 42 2 90 54 14 86 22 154 126 70 138 26 6 102 134 118 114 27 123 91 47 67 15 7 35 127 95 135 155 3 115 83 11 107 43 19 143 139 63 55 39 87 147 79 59 23 151 51 75 99 103 159 111 31 71 119 131
     trace-cmd: mg.B.x_sn4.19_reorganize_in_sockets.dat
     hyperfine: 0.476284+-0.005068
  rotate 20
     trace-cmd: mg.B.x_sn4.19_rotate20.dat
     hyperfine: 0.480071+-0.004453
  rotate 10
     trace-cmd: mg.B.x_sn4.19_rotate10.dat
     hyperfine: 0.478153+-0.003694
  rotate 5
     trace-cmd: mg.B.x_sn4.19_rotate5.dat
     hyperfine: 0.476668+-0.004077
  even shift
     trace-cmd: mg.B.x_sn4.19_evenshift.dat
     hyperfine: 1.006221+-0.095917
  one shift
     trace-cmd: mg.B.x_sn4.19_oneshift.dat
     hyperfine: 0.734002+-0.036729
  reorganize_everything: 124 82 155 51 121 113 3 131 156 127 89 47 71 110 106 85 107 11 59 14 93 13 154 32 148 5 76 44 18 119 150 54 39 75 105 38 52 141 41 87 40 58 48 46 57 96 123 112 50 21 73 100 103 114 25 125 29 129 98 135 19 67 27 139 61 79 138 149 153 33 136 77 23 86 102 8 35 108 7 142 30 55 137 91 68 84 17 147 118 9 63 15 126 53 104 132 0 62 143 10 56 37 159 16 36 1 152 43 133 22 101 99 134 78 88 130 109 151 145 115 20 122 116 49 157 117 42 69 144 97 72 120 83 28 74 6 95 140 12 92 111 31 146 70 158 65 2 60 90 128 34 45 94 80 24 4 66 26 81 64
     trace-cmd: mg.B.x_sn4.19_reorganize_everything.dat
     hyperfine: 0.811599+-0.042962
  reorganize_everything: 48 108 82 22 135 32 43 116 50 157 4 138 147 28 87 122 77 155 27 20 101 115 8 72 2 67 123 124 91 19 99 57 133 111 73 121 119 29 12 132 17 151 84 56 66 83 75 1 47 52 81 9 94 11 16 24 15 134 95 125 106 89 61 25 62 69 140 14 137 7 141 117 98 31 154 79 40 45 53 146 21 34 76 68 120 149 54 18 107 143 55 153 42 38 129 70 103 92 37 118 113 102 139 10 148 44 93 150 88 71 159 13 33 128 136 145 78 105 90 131 3 110 58 0 65 35 64 86 46 63 80 96 51 100 5 152 144 130 156 142 60 85 74 104 127 23 36 26 97 112 158 30 6 49 126 114 41 109 39 59
     trace-cmd: mg.B.x_sn4.19_reorganize_everything.dat
     hyperfine: 0.814434+-0.035007
  reorganize_everything: 75 67 64 101 83 74 32 143 35 27 119 154 152 147 109 100 126 123 117 102 6 106 94 87 144 142 137 115 12 96 46 70 54 107 145 122 24 61 116 124 153 33 85 93 132 135 11 51 17 133 62 26 88 99 121 22 149 151 39 127 42 7 18 21 38 1 5 130 43 16 53 56 79 15 4 98 25 108 129 112 148 136 78 141 80 140 128 95 59 110 48 47 69 81 113 120 71 86 2 30 125 118 65 92 146 31 104 63 10 40 138 60 44 52 76 14 50 89 82 150 111 41 0 9 134 84 68 13 66 23 29 8 105 90 73 20 37 28 55 19 58 131 72 36 103 156 114 3 45 57 34 97 139 155 157 77 159 49 158 91
     trace-cmd: mg.B.x_sn4.19_reorganize_everything.dat
     hyperfine: 0.853211+-0.048535
bin/sp.B.x
  no change
     trace-cmd: sp.B.x_sn4.19_nochange.dat
     hyperfine: 2.497008+-0.027593
  round robin
     trace-cmd: sp.B.x_sn4.19_roundrobin.dat
     hyperfine: 5.897274+-0.225740
  reorganize sockets 1: 2 0 3 1
     trace-cmd: sp.B.x_sn4.19_reorganizesockets1.dat
     hyperfine: 2.504288+-0.030169
  reorganize sockets 2: 1 2 0 3
     trace-cmd: sp.B.x_sn4.19_reorganizesockets2.dat
     hyperfine: 2.522229+-0.017269
  reorganize sockets 3: 2 1 3 0
     trace-cmd: sp.B.x_sn4.19_reorganizesockets3.dat
     hyperfine: 2.522824+-0.024077
  reorganize_in_sockets: 120 92 60 76 72 68 20 100 52 24 56 152 96 148 0 8 64 44 32 128 136 156 104 108 36 132 16 4 112 12 124 84 116 48 88 140 80 40 28 144 157 9 73 69 5 81 125 105 89 121 77 57 93 153 1 37 109 29 25 101 21 113 61 137 129 13 133 53 17 149 97 65 45 49 141 145 33 41 117 85 130 78 98 106 50 6 2 134 138 110 74 86 30 18 122 150 70 66 46 62 42 10 158 58 142 102 90 94 154 38 114 126 82 26 146 118 22 54 34 14 119 23 95 67 75 39 159 47 55 135 147 27 3 87 79 63 51 151 139 11 127 83 15 71 131 59 103 111 91 155 35 43 107 31 143 7 99 19 123 115
     trace-cmd: sp.B.x_sn4.19_reorganize_in_sockets.dat
     hyperfine: 2.563170+-0.086825
  reorganize_in_sockets: 84 112 136 16 92 12 0 4 148 56 128 116 68 48 76 96 132 100 60 24 40 108 32 124 88 104 72 80 8 52 140 144 120 152 44 36 64 28 20 156 73 13 137 37 93 21 1 69 89 57 121 105 141 45 25 157 29 17 33 117 109 129 125 9 41 49 145 85 61 113 153 53 5 81 133 149 65 77 101 97 110 58 30 98 146 22 26 74 54 142 90 118 10 14 114 130 138 62 86 158 34 66 38 82 70 102 150 94 154 2 106 126 50 78 42 6 122 46 134 18 151 75 71 143 47 135 23 7 59 159 19 103 115 87 79 35 111 63 3 155 127 95 43 39 99 55 15 51 67 139 123 147 107 91 27 31 83 11 131 119
     trace-cmd: sp.B.x_sn4.19_reorganize_in_sockets.dat
     hyperfine: 2.549293+-0.027871
  reorganize_in_sockets: 152 56 96 16 48 144 24 36 140 76 8 84 44 64 12 80 92 120 28 116 124 32 72 156 108 60 132 100 104 40 4 136 128 88 20 0 52 148 68 112 125 69 137 13 105 121 17 33 25 53 49 141 117 133 145 101 61 85 37 89 45 81 57 65 29 113 97 109 153 77 1 73 149 5 93 129 41 157 9 21 110 158 30 74 58 98 150 82 146 10 62 106 34 66 50 18 38 78 94 46 130 122 142 42 2 90 54 14 86 22 154 126 70 138 26 6 102 134 118 114 27 123 91 47 67 15 7 35 127 95 135 155 3 115 83 11 107 43 19 143 139 63 55 39 87 147 79 59 23 151 51 75 99 103 159 111 31 71 119 131
     trace-cmd: sp.B.x_sn4.19_reorganize_in_sockets.dat
     hyperfine: 2.551289+-0.024597
  rotate 20
     trace-cmd: sp.B.x_sn4.19_rotate20.dat
     hyperfine: 2.636275+-0.059193
  rotate 10
     trace-cmd: sp.B.x_sn4.19_rotate10.dat
     hyperfine: 2.594251+-0.088621
  rotate 5
     trace-cmd: sp.B.x_sn4.19_rotate5.dat
     hyperfine: 2.571890+-0.036844
  even shift
     trace-cmd: sp.B.x_sn4.19_evenshift.dat
     hyperfine: 5.046897+-0.310502
  one shift
     trace-cmd: sp.B.x_sn4.19_oneshift.dat
     hyperfine: 4.448387+-0.169220
  reorganize_everything: 124 82 155 51 121 113 3 131 156 127 89 47 71 110 106 85 107 11 59 14 93 13 154 32 148 5 76 44 18 119 150 54 39 75 105 38 52 141 41 87 40 58 48 46 57 96 123 112 50 21 73 100 103 114 25 125 29 129 98 135 19 67 27 139 61 79 138 149 153 33 136 77 23 86 102 8 35 108 7 142 30 55 137 91 68 84 17 147 118 9 63 15 126 53 104 132 0 62 143 10 56 37 159 16 36 1 152 43 133 22 101 99 134 78 88 130 109 151 145 115 20 122 116 49 157 117 42 69 144 97 72 120 83 28 74 6 95 140 12 92 111 31 146 70 158 65 2 60 90 128 34 45 94 80 24 4 66 26 81 64
     trace-cmd: sp.B.x_sn4.19_reorganize_everything.dat
     hyperfine: 4.854386+-0.239983
  reorganize_everything: 48 108 82 22 135 32 43 116 50 157 4 138 147 28 87 122 77 155 27 20 101 115 8 72 2 67 123 124 91 19 99 57 133 111 73 121 119 29 12 132 17 151 84 56 66 83 75 1 47 52 81 9 94 11 16 24 15 134 95 125 106 89 61 25 62 69 140 14 137 7 141 117 98 31 154 79 40 45 53 146 21 34 76 68 120 149 54 18 107 143 55 153 42 38 129 70 103 92 37 118 113 102 139 10 148 44 93 150 88 71 159 13 33 128 136 145 78 105 90 131 3 110 58 0 65 35 64 86 46 63 80 96 51 100 5 152 144 130 156 142 60 85 74 104 127 23 36 26 97 112 158 30 6 49 126 114 41 109 39 59
     trace-cmd: sp.B.x_sn4.19_reorganize_everything.dat
     hyperfine: 5.243165+-0.411804
  reorganize_everything: 75 67 64 101 83 74 32 143 35 27 119 154 152 147 109 100 126 123 117 102 6 106 94 87 144 142 137 115 12 96 46 70 54 107 145 122 24 61 116 124 153 33 85 93 132 135 11 51 17 133 62 26 88 99 121 22 149 151 39 127 42 7 18 21 38 1 5 130 43 16 53 56 79 15 4 98 25 108 129 112 148 136 78 141 80 140 128 95 59 110 48 47 69 81 113 120 71 86 2 30 125 118 65 92 146 31 104 63 10 40 138 60 44 52 76 14 50 89 82 150 111 41 0 9 134 84 68 13 66 23 29 8 105 90 73 20 37 28 55 19 58 131 72 36 103 156 114 3 45 57 34 97 139 155 157 77 159 49 158 91
     trace-cmd: sp.B.x_sn4.19_reorganize_everything.dat
     hyperfine: 5.705484+-0.242138
bin/ua.B.x
  no change
     trace-cmd: ua.B.x_sn4.19_nochange.dat
     hyperfine: 5.479052+-0.058064
  round robin
     trace-cmd: ua.B.x_sn4.19_roundrobin.dat
     hyperfine: 7.726351+-0.262769
  reorganize sockets 1: 2 0 3 1
     trace-cmd: ua.B.x_sn4.19_reorganizesockets1.dat
     hyperfine: 5.508120+-0.102083
  reorganize sockets 2: 1 2 0 3
     trace-cmd: ua.B.x_sn4.19_reorganizesockets2.dat
     hyperfine: 5.531820+-0.093901
  reorganize sockets 3: 2 1 3 0
     trace-cmd: ua.B.x_sn4.19_reorganizesockets3.dat
     hyperfine: 5.517644+-0.073598
  reorganize_in_sockets: 120 92 60 76 72 68 20 100 52 24 56 152 96 148 0 8 64 44 32 128 136 156 104 108 36 132 16 4 112 12 124 84 116 48 88 140 80 40 28 144 157 9 73 69 5 81 125 105 89 121 77 57 93 153 1 37 109 29 25 101 21 113 61 137 129 13 133 53 17 149 97 65 45 49 141 145 33 41 117 85 130 78 98 106 50 6 2 134 138 110 74 86 30 18 122 150 70 66 46 62 42 10 158 58 142 102 90 94 154 38 114 126 82 26 146 118 22 54 34 14 119 23 95 67 75 39 159 47 55 135 147 27 3 87 79 63 51 151 139 11 127 83 15 71 131 59 103 111 91 155 35 43 107 31 143 7 99 19 123 115
     trace-cmd: ua.B.x_sn4.19_reorganize_in_sockets.dat
     hyperfine: 5.482261+-0.101093
  reorganize_in_sockets: 84 112 136 16 92 12 0 4 148 56 128 116 68 48 76 96 132 100 60 24 40 108 32 124 88 104 72 80 8 52 140 144 120 152 44 36 64 28 20 156 73 13 137 37 93 21 1 69 89 57 121 105 141 45 25 157 29 17 33 117 109 129 125 9 41 49 145 85 61 113 153 53 5 81 133 149 65 77 101 97 110 58 30 98 146 22 26 74 54 142 90 118 10 14 114 130 138 62 86 158 34 66 38 82 70 102 150 94 154 2 106 126 50 78 42 6 122 46 134 18 151 75 71 143 47 135 23 7 59 159 19 103 115 87 79 35 111 63 3 155 127 95 43 39 99 55 15 51 67 139 123 147 107 91 27 31 83 11 131 119
     trace-cmd: ua.B.x_sn4.19_reorganize_in_sockets.dat
     hyperfine: 5.485179+-0.058971
  reorganize_in_sockets: 152 56 96 16 48 144 24 36 140 76 8 84 44 64 12 80 92 120 28 116 124 32 72 156 108 60 132 100 104 40 4 136 128 88 20 0 52 148 68 112 125 69 137 13 105 121 17 33 25 53 49 141 117 133 145 101 61 85 37 89 45 81 57 65 29 113 97 109 153 77 1 73 149 5 93 129 41 157 9 21 110 158 30 74 58 98 150 82 146 10 62 106 34 66 50 18 38 78 94 46 130 122 142 42 2 90 54 14 86 22 154 126 70 138 26 6 102 134 118 114 27 123 91 47 67 15 7 35 127 95 135 155 3 115 83 11 107 43 19 143 139 63 55 39 87 147 79 59 23 151 51 75 99 103 159 111 31 71 119 131
     trace-cmd: ua.B.x_sn4.19_reorganize_in_sockets.dat
     hyperfine: 5.509930+-0.076235
  rotate 20
     trace-cmd: ua.B.x_sn4.19_rotate20.dat
     hyperfine: 5.512288+-0.064995
  rotate 10
     trace-cmd: ua.B.x_sn4.19_rotate10.dat
     hyperfine: 5.553468+-0.092401
  rotate 5
     trace-cmd: ua.B.x_sn4.19_rotate5.dat
     hyperfine: 5.534985+-0.113179
  even shift
     trace-cmd: ua.B.x_sn4.19_evenshift.dat
     hyperfine: 7.343595+-0.268387
  one shift
     trace-cmd: ua.B.x_sn4.19_oneshift.dat
     hyperfine: 6.507474+-0.191007
  reorganize_everything: 124 82 155 51 121 113 3 131 156 127 89 47 71 110 106 85 107 11 59 14 93 13 154 32 148 5 76 44 18 119 150 54 39 75 105 38 52 141 41 87 40 58 48 46 57 96 123 112 50 21 73 100 103 114 25 125 29 129 98 135 19 67 27 139 61 79 138 149 153 33 136 77 23 86 102 8 35 108 7 142 30 55 137 91 68 84 17 147 118 9 63 15 126 53 104 132 0 62 143 10 56 37 159 16 36 1 152 43 133 22 101 99 134 78 88 130 109 151 145 115 20 122 116 49 157 117 42 69 144 97 72 120 83 28 74 6 95 140 12 92 111 31 146 70 158 65 2 60 90 128 34 45 94 80 24 4 66 26 81 64
     trace-cmd: ua.B.x_sn4.19_reorganize_everything.dat
     hyperfine: 7.001110+-0.397930
  reorganize_everything: 48 108 82 22 135 32 43 116 50 157 4 138 147 28 87 122 77 155 27 20 101 115 8 72 2 67 123 124 91 19 99 57 133 111 73 121 119 29 12 132 17 151 84 56 66 83 75 1 47 52 81 9 94 11 16 24 15 134 95 125 106 89 61 25 62 69 140 14 137 7 141 117 98 31 154 79 40 45 53 146 21 34 76 68 120 149 54 18 107 143 55 153 42 38 129 70 103 92 37 118 113 102 139 10 148 44 93 150 88 71 159 13 33 128 136 145 78 105 90 131 3 110 58 0 65 35 64 86 46 63 80 96 51 100 5 152 144 130 156 142 60 85 74 104 127 23 36 26 97 112 158 30 6 49 126 114 41 109 39 59
     trace-cmd: ua.B.x_sn4.19_reorganize_everything.dat
     hyperfine: 7.101787+-0.266099
  reorganize_everything: 75 67 64 101 83 74 32 143 35 27 119 154 152 147 109 100 126 123 117 102 6 106 94 87 144 142 137 115 12 96 46 70 54 107 145 122 24 61 116 124 153 33 85 93 132 135 11 51 17 133 62 26 88 99 121 22 149 151 39 127 42 7 18 21 38 1 5 130 43 16 53 56 79 15 4 98 25 108 129 112 148 136 78 141 80 140 128 95 59 110 48 47 69 81 113 120 71 86 2 30 125 118 65 92 146 31 104 63 10 40 138 60 44 52 76 14 50 89 82 150 111 41 0 9 134 84 68 13 66 23 29 8 105 90 73 20 37 28 55 19 58 131 72 36 103 156 114 3 45 57 34 97 139 155 157 77 159 49 158 91
     trace-cmd: ua.B.x_sn4.19_reorganize_everything.dat
     hyperfine: 7.040943+-0.258602
