2022-01-20-0122,

"oneDNN2.1.2 - Harness: IP Shapes 1D - Data Type: f32 - Engine: CPU",
Lower Results Are Better

"2 x Intel Xeon Gold 5218",1.94643,1.94726,1.96125,1.95409,1.96845,1.96067,1.94807,1.96878,1.94915,1.95033

"oneDNN2.1.2 - Harness: IP Shapes 3D - Data Type: f32 - Engine: CPU",
Lower Results Are Better

"2 x Intel Xeon Gold 5218",3.78694,3.83802,3.78819,3.79907,3.79124,3.79741,3.788,3.79677,3.78912,3.77957

"oneDNN2.1.2 - Harness: Recurrent Neural Network Training - Data Type: f32 - Engine: CPU",
Lower Results Are Better

"2 x Intel Xeon Gold 5218",1718.43,1712.12,1719.21,1710.55,1714.54,1713.26,1707.42,1711.47,1710.94,1717.95

"oneDNN2.1.2 - Harness: Recurrent Neural Network Training - Data Type: u8s8f32 - Engine: CPU",
Lower Results Are Better

"2 x Intel Xeon Gold 5218",1709.35,1704.26,1712.86,1709.15,1709.52,1709.34,1699.08,1713.29,1708,1713.93

"oneDNN2.1.2 - Harness: Recurrent Neural Network Training - Data Type: bf16bf16bf16 - Engine: CPU",
Lower Results Are Better

"2 x Intel Xeon Gold 5218",1722.27,1714.18,1709.49,1706.81,1696.74,1708.14,1707.22,1701.21,1710.89,1684.74


