2022-01-23-1642,

"ArrayFire3.7 - Test: BLAS CPU",
Higher Results Are Better

"4 x Intel Xeon Gold 6130",5553.3,3148.24,3140.39,3100.86,3055.73,3152.43,3163.96,3150.42,3174.37,3042.13

"ArrayFire3.7 - Test: Conjugate Gradient CPU",
Lower Results Are Better

"4 x Intel Xeon Gold 6130",16.42,26.27,19.04,18.75,21.08,17.33,22.82,18.53,18.81,18.87


