2022-01-20-0223,

"Zstd Compression1.5.0 - Compression Level: 3, Long Mode - Compression Speed",
Higher Results Are Better

"2 x Intel Xeon Gold 5218",638,650.2,638.1,676,628.1,607.4,630.8,665.9,699.3,650.5

"Zstd Compression1.5.0 - Compression Level: 8, Long Mode - Compression Speed",
Higher Results Are Better

"2 x Intel Xeon Gold 5218",522.8,534.7,519.9,531.8,533.5,517.1,532.8,522.5,520.7,531.9


