2022-01-20-2337,

"Intel Open Image Denoise1.4.0 - Run: RT.hdr_alb_nrm.3840x2160",
Higher Results Are Better

"2 x Intel Xeon Gold 6130",1.1471994566863,1.14381402499,1.1452877707317,1.1530594125393,1.1487980700192,1.1451644857009,1.1514356675621,1.1356938351132,1.1488944189007,1.1471376048914

"Intel Open Image Denoise1.4.0 - Run: RT.ldr_alb_nrm.3840x2160",
Higher Results Are Better

"2 x Intel Xeon Gold 6130",1.1497054454649,1.1566644111711,1.1465391715108,1.1499090421948,1.1446388549949,1.1553107323746,1.151496657781,1.1402716583199,1.1510380636777,1.1536260774868

"Intel Open Image Denoise1.4.0 - Run: RTLightmap.hdr.4096x4096",
Higher Results Are Better

"2 x Intel Xeon Gold 6130",0.54175289566923,0.54453477671352,0.54210532022161,0.54429470292395,0.54490864606549,0.5432420686658,0.54281449314697,0.54414957583541,0.54325092216844,0.54407260104788


