2022-01-19-2353,

"Zstd Compression1.5.0 - Compression Level: 3, Long Mode - Compression Speed",
Higher Results Are Better

"4 x Intel Xeon Gold 6130",366.3,444.4,375,357.7,364.6,376,419.8,438.6,349.2,370.3

"Zstd Compression1.5.0 - Compression Level: 8, Long Mode - Compression Speed",
Higher Results Are Better

"4 x Intel Xeon Gold 6130",487.5,468.2,474.1,472.4,490.2,478,463.2,458.9,465.5,516.3



