2022-02-01-1704,

"Cpuminer-Opt3.15.5 - Algorithm: Blake-2 S",
Higher Results Are Better

"2 x Intel Xeon Gold 5218",1815910,1934440,1826170,1801880,1865290,1505860,1586440,1892430,1849440,1836420

"Cpuminer-Opt3.15.5 - Algorithm: Skeincoin",
Higher Results Are Better

"2 x Intel Xeon Gold 5218",361850,354110,347940,344740,331530,351930,328220,325970,352900,344740

"Cpuminer-Opt3.15.5 - Algorithm: Myriad-Groestl",
Higher Results Are Better

"2 x Intel Xeon Gold 5218",11050,9055.26,9756.14,9044.83,9435.12,12110,8924.26,9095.3,8836.46,9148.93

"Cpuminer-Opt3.15.5 - Algorithm: Quad SHA-256, Pyrite",
Higher Results Are Better

"2 x Intel Xeon Gold 5218",343140,412720,419350,405300,381330,401310,411910,414010,425700,399710

"Cpuminer-Opt3.15.5 - Algorithm: Triple SHA-256, Onecoin",
Higher Results Are Better

"2 x Intel Xeon Gold 5218",464700,532150,563250,518190,532890,543380,530800,553900,552600,540960


