2022-02-01-2242,

"Intel Open Image Denoise1.4.0 - Run: RT.hdr_alb_nrm.3840x2160",
Higher Results Are Better

"2 x Intel Xeon Gold 5218",0.76918935134262,0.76781326781327,0.76811404957408,0.7688877270141,0.76641860251232,0.76959188542316,0.76453768406245,0.76608980104648,0.76380773431712,0.76852136489394

"Intel Open Image Denoise1.4.0 - Run: RT.ldr_alb_nrm.3840x2160",
Higher Results Are Better

"2 x Intel Xeon Gold 5218",0.77184316146959,0.76820846104799,0.76904738100914,0.77020240919314,0.76718298081275,0.76554437860763,0.7688640802079,0.76614849490128,0.76936688798788,0.76750683081079

"Intel Open Image Denoise1.4.0 - Run: RTLightmap.hdr.4096x4096",
Higher Results Are Better

"2 x Intel Xeon Gold 5218",0.36360198672126,0.36413821229986,0.36430536075338,0.36314644606731,0.36289210491937,0.36257632231585,0.36331136510612,0.36425360793199,0.36339586164793,0.36257763693651


