2022-01-23-1900,

"Zstd Compression1.5.0 - Compression Level: 3, Long Mode - Compression Speed",
Higher Results Are Better

"4 x Intel Xeon Gold 6130",792.8,772.6,775.8,791.8,773.4,817.1,773.6,731.2,734.2,747.4

"Zstd Compression1.5.0 - Compression Level: 8, Long Mode - Compression Speed",
Higher Results Are Better

"4 x Intel Xeon Gold 6130",659.4,672.7,659.9,653.4,670.5,664.3,659,661.5,661.7,669.9


