2022-01-23-1851,

"oneDNN2.1.2 - Harness: IP Shapes 1D - Data Type: f32 - Engine: CPU",
Lower Results Are Better

"2 x Intel Xeon Gold 6130",1.73271,1.71546,1.7131,1.71983,1.71782,1.70332,1.72356,1.7067,1.73883,1.73471

"oneDNN2.1.2 - Harness: IP Shapes 3D - Data Type: f32 - Engine: CPU",
Lower Results Are Better

"2 x Intel Xeon Gold 6130",3.79491,3.80413,3.7933,3.78432,3.80102,3.30315,3.83856,3.83078,3.81714,3.80721

"oneDNN2.1.2 - Harness: Recurrent Neural Network Training - Data Type: f32 - Engine: CPU",
Lower Results Are Better

"2 x Intel Xeon Gold 6130",1337.7,1332.63,1348.48,1336.1,1334.61,1329.7,1299.45,1334.32,1342.78,1321.47

"oneDNN2.1.2 - Harness: Recurrent Neural Network Training - Data Type: u8s8f32 - Engine: CPU",
Lower Results Are Better

"2 x Intel Xeon Gold 6130",1346.83,1343.49,1335.85,1350.19,1336.83,1339.54,1333.94,1351.71,1327.55,1339.96

"oneDNN2.1.2 - Harness: Recurrent Neural Network Training - Data Type: bf16bf16bf16 - Engine: CPU",
Lower Results Are Better

"2 x Intel Xeon Gold 6130",1336.76,1344.98,1326.84,1336.63,1328.95,1331.57,1338.96,1338.38,1340.09,1338.6


