2022-01-23-1744,

"Cpuminer-Opt3.15.5 - Algorithm: Blake-2 S",
Higher Results Are Better

"4 x Intel Xeon Gold 6130",2869820,3871120,4068650,4284290,3842030,3476540,3733810,3850080,3682330,3447680

"Cpuminer-Opt3.15.5 - Algorithm: Skeincoin",
Higher Results Are Better

"4 x Intel Xeon Gold 6130",664110,736290,745750,742880,735960,739050,700080,742480,720270,746290

"Cpuminer-Opt3.15.5 - Algorithm: Myriad-Groestl",
Higher Results Are Better

"4 x Intel Xeon Gold 6130",10770,9183.59,10290,8696.39,8683.99,9820.08,9967.25,8719.69,9710.33,10580

"Cpuminer-Opt3.15.5 - Algorithm: Quad SHA-256, Pyrite",
Higher Results Are Better

"4 x Intel Xeon Gold 6130",510370,782370,740890,808090,829090,817900,853690,801420,814850,811060

"Cpuminer-Opt3.15.5 - Algorithm: Triple SHA-256, Onecoin",
Higher Results Are Better

"4 x Intel Xeon Gold 6130",841970,1024500,976900,1028560,1029570,1036660,991600,980270,1035860,1025230


