2022-01-20-0044,

"oneDNN2.1.2 - Harness: IP Shapes 1D - Data Type: f32 - Engine: CPU",
Lower Results Are Better

"4 x Intel Xeon Gold 6130",1.37663,1.38888,1.38959,1.39584,1.37564,1.37654,1.39177,1.39547,1.38517,1.37766

"oneDNN2.1.2 - Harness: IP Shapes 3D - Data Type: f32 - Engine: CPU",
Lower Results Are Better

"4 x Intel Xeon Gold 6130",4.00975,4.02839,4.01009,4.00969,4.00949,4.00704,4.04178,4.01621,4.03343,4.01849

"oneDNN2.1.2 - Harness: Recurrent Neural Network Training - Data Type: f32 - Engine: CPU",
Lower Results Are Better

"4 x Intel Xeon Gold 6130",876.631,867.594,864.205,876.674,884.125,881.307,879.616,869.814,879.511,878.999

"oneDNN2.1.2 - Harness: Recurrent Neural Network Training - Data Type: u8s8f32 - Engine: CPU",
Lower Results Are Better

"4 x Intel Xeon Gold 6130",889.307,872.213,854.648,881.846,890.253,873.918,887.345,865.221,869.395,859.092

"oneDNN2.1.2 - Harness: Recurrent Neural Network Training - Data Type: bf16bf16bf16 - Engine: CPU",
Lower Results Are Better

"4 x Intel Xeon Gold 6130",865.992,882.821,865.32,881.837,873.492,888.847,882.879,877.872,866.413,892.9


