2022-01-21-0009,

"oneDNN2.1.2 - Harness: IP Shapes 1D - Data Type: f32 - Engine: CPU",
Lower Results Are Better

"2 x Intel Xeon Gold 6130",1.72244,1.72223,1.71657,1.71286,1.68504,1.70949,1.71292,1.70559,1.71101,1.70696

"oneDNN2.1.2 - Harness: IP Shapes 3D - Data Type: f32 - Engine: CPU",
Lower Results Are Better

"2 x Intel Xeon Gold 6130",3.80253,3.33533,3.80842,3.82286,3.79629,3.80501,3.81544,3.81134,3.77948,3.80872

"oneDNN2.1.2 - Harness: Recurrent Neural Network Training - Data Type: f32 - Engine: CPU",
Lower Results Are Better

"2 x Intel Xeon Gold 6130",1339.88,1338.39,1333.58,1353.43,1329.52,1330.93,1331.96,1345.95,1335.78,1333.63

"oneDNN2.1.2 - Harness: Recurrent Neural Network Training - Data Type: u8s8f32 - Engine: CPU",
Lower Results Are Better

"2 x Intel Xeon Gold 6130",1340.81,1330.66,1346.23,1332.8,1335.54,1325.12,1343.81,1336.98,1335.04,1321.81

"oneDNN2.1.2 - Harness: Recurrent Neural Network Training - Data Type: bf16bf16bf16 - Engine: CPU",
Lower Results Are Better

"2 x Intel Xeon Gold 6130",1334.16,1338.32,1342.79,1337.11,1324.67,1336.21,1337.42,1328.64,1329.68,1335.01


